^C:\USERS\DCARR\DESKTOP\GAM-345-02080\INTRO\INTRO\MAIN.CPP
C:\USERS\DCARR\DESKTOP\GAM-345-02080\INTRO\INTRO\DEBUG\VC141.PDB
C:\USERS\DCARR\DESKTOP\GAM-345-02080\INTRO\INTRO\DEBUG\VC141.IDB
C:\USERS\DCARR\DESKTOP\GAM-345-02080\INTRO\INTRO\DEBUG\MAIN.OBJ
