^C:\USERS\DCARR\DESKTOP\GAM-345-02080\INTRO\INTRO\DEBUG\MAIN.OBJ
C:\USERS\DCARR\DESKTOP\GAM-345-02080\INTRO\DEBUG\INTRO.EXE
C:\USERS\DCARR\DESKTOP\GAM-345-02080\INTRO\DEBUG\INTRO.ILK
C:\USERS\DCARR\DESKTOP\GAM-345-02080\INTRO\DEBUG\INTRO.PDB
